^D:\WORK\SDK-LINEUP GIT\EXAMPLES\C++\BASIC MULTIPLE FLOW EZ MODULES CONTROL\BASIC MULTIPLE FLOW EZ MODULES CONTROL.CPP|D:\WORK\SDK-LINEUP GIT\EXAMPLES\C++\LINEUP LOW LEVEL.CPP|D:\WORK\SDK-LINEUP GIT\EXAMPLES\C++\LINEUP MIDDLEWARE.CPP
D:\WORK\SDK-LINEUP GIT\EXAMPLES\C++\BASIC MULTIPLE FLOW EZ MODULES CONTROL\DEBUG\VC120.PDB
D:\WORK\SDK-LINEUP GIT\EXAMPLES\C++\BASIC MULTIPLE FLOW EZ MODULES CONTROL\DEBUG\VC120.IDB
D:\WORK\SDK-LINEUP GIT\EXAMPLES\C++\BASIC MULTIPLE FLOW EZ MODULES CONTROL\DEBUG\LINEUP MIDDLEWARE.OBJ
D:\WORK\SDK-LINEUP GIT\EXAMPLES\C++\BASIC MULTIPLE FLOW EZ MODULES CONTROL\DEBUG\LINEUP LOW LEVEL.OBJ
^D:\WORK\SDK-LINEUP GIT\EXAMPLES\C++\LINEUP LOW LEVEL.CPP
D:\WORK\SDK-LINEUP GIT\EXAMPLES\C++\BASIC MULTIPLE FLOW EZ MODULES CONTROL\DEBUG\VC120.PDB
D:\WORK\SDK-LINEUP GIT\EXAMPLES\C++\BASIC MULTIPLE FLOW EZ MODULES CONTROL\DEBUG\VC120.IDB
D:\WORK\SDK-LINEUP GIT\EXAMPLES\C++\BASIC MULTIPLE FLOW EZ MODULES CONTROL\DEBUG\LINEUP LOW LEVEL.OBJ
^D:\WORK\SDK-LINEUP GIT\EXAMPLES\C++\LINEUP MIDDLEWARE.CPP
D:\WORK\SDK-LINEUP GIT\EXAMPLES\C++\BASIC MULTIPLE FLOW EZ MODULES CONTROL\DEBUG\VC120.PDB
D:\WORK\SDK-LINEUP GIT\EXAMPLES\C++\BASIC MULTIPLE FLOW EZ MODULES CONTROL\DEBUG\VC120.IDB
D:\WORK\SDK-LINEUP GIT\EXAMPLES\C++\BASIC MULTIPLE FLOW EZ MODULES CONTROL\DEBUG\LINEUP MIDDLEWARE.OBJ
^D:\WORK\SDK-LINEUP GIT\EXAMPLES\C++\BASIC MULTIPLE FLOW EZ MODULES CONTROL\BASIC MULTIPLE FLOW EZ MODULES CONTROL.CPP
D:\WORK\SDK-LINEUP GIT\EXAMPLES\C++\BASIC MULTIPLE FLOW EZ MODULES CONTROL\DEBUG\VC120.PDB
D:\WORK\SDK-LINEUP GIT\EXAMPLES\C++\BASIC MULTIPLE FLOW EZ MODULES CONTROL\DEBUG\VC120.IDB
D:\WORK\SDK-LINEUP GIT\EXAMPLES\C++\BASIC MULTIPLE FLOW EZ MODULES CONTROL\DEBUG\BASIC MULTIPLE FLOW EZ MODULES CONTROL.OBJ
^D:\WORK\SDK-LINEUP GIT\EXAMPLES\C++\BASIC MULTIPLE FLOW EZ MODULES CONTROL\BASIC MULTIPLE FLOW EZ MODULES CONTROL.CPP|D:\WORK\SDK-LINEUP GIT\EXAMPLES\C++\LINEUP MIDDLEWARE.CPP
D:\WORK\SDK-LINEUP GIT\EXAMPLES\C++\BASIC MULTIPLE FLOW EZ MODULES CONTROL\DEBUG\VC120.PDB
D:\WORK\SDK-LINEUP GIT\EXAMPLES\C++\BASIC MULTIPLE FLOW EZ MODULES CONTROL\DEBUG\VC120.IDB
D:\WORK\SDK-LINEUP GIT\EXAMPLES\C++\BASIC MULTIPLE FLOW EZ MODULES CONTROL\DEBUG\LINEUP MIDDLEWARE.OBJ
^D:\WORK\SDK-LINEUP GIT\EXAMPLES\C++\BASIC MULTIPLE FLOW EZ MODULES CONTROL\BASIC MULTIPLE FLOW EZ MODULES CONTROL.CPP|D:\WORK\SDK-LINEUP GIT\EXAMPLES\C++\LINEUP LOW LEVEL.CPP
D:\WORK\SDK-LINEUP GIT\EXAMPLES\C++\BASIC MULTIPLE FLOW EZ MODULES CONTROL\DEBUG\VC120.PDB
D:\WORK\SDK-LINEUP GIT\EXAMPLES\C++\BASIC MULTIPLE FLOW EZ MODULES CONTROL\DEBUG\VC120.IDB
D:\WORK\SDK-LINEUP GIT\EXAMPLES\C++\BASIC MULTIPLE FLOW EZ MODULES CONTROL\DEBUG\BASIC MULTIPLE FLOW EZ MODULES CONTROL.OBJ
