^D:\WORK\SDK-LINEUP GIT\EXAMPLES\C++\LINEUP CPP ADVANCED\BASIC PRESSURE RAMP\DEBUG\BASIC PRESSURE RAMP.OBJ|D:\WORK\SDK-LINEUP GIT\EXAMPLES\C++\LINEUP CPP ADVANCED\BASIC PRESSURE RAMP\DEBUG\LINEUP LOW LEVEL.OBJ|D:\WORK\SDK-LINEUP GIT\EXAMPLES\C++\LINEUP CPP ADVANCED\BASIC PRESSURE RAMP\DEBUG\LINEUP MIDDLEWARE.OBJ
D:\WORK\SDK-LINEUP GIT\EXAMPLES\C++\LINEUP CPP ADVANCED\DEBUG\BASIC PRESSURE RAMP.ILK
D:\WORK\SDK-LINEUP GIT\EXAMPLES\C++\LINEUP CPP ADVANCED\DEBUG\BASIC PRESSURE RAMP.EXE
D:\WORK\SDK-LINEUP GIT\EXAMPLES\C++\LINEUP CPP ADVANCED\DEBUG\BASIC PRESSURE RAMP.PDB
^D:\WORK\SDK-LINEUP GIT\EXAMPLES\C++\BASIC PRESSURE RAMP\DEBUG\BASIC PRESSURE RAMP.OBJ|D:\WORK\SDK-LINEUP GIT\EXAMPLES\C++\BASIC PRESSURE RAMP\DEBUG\LINEUP LOW LEVEL.OBJ|D:\WORK\SDK-LINEUP GIT\EXAMPLES\C++\BASIC PRESSURE RAMP\DEBUG\LINEUP MIDDLEWARE.OBJ
D:\WORK\SDK-LINEUP GIT\EXAMPLES\C++\DEBUG\BASIC PRESSURE RAMP.ILK
D:\WORK\SDK-LINEUP GIT\EXAMPLES\C++\DEBUG\BASIC PRESSURE RAMP.EXE
D:\WORK\SDK-LINEUP GIT\EXAMPLES\C++\DEBUG\BASIC PRESSURE RAMP.PDB
