^D:\WORK\SDK-LINEUP GIT\EXAMPLES\C++\LINEUP CPP ADVANCED\BASIC PRESSURE RAMP\DEBUG\BASIC PRESSURE RAMP.OBJ|D:\WORK\SDK-LINEUP GIT\EXAMPLES\C++\LINEUP CPP ADVANCED\BASIC PRESSURE RAMP\DEBUG\LINEUP LOW LEVEL.OBJ|D:\WORK\SDK-LINEUP GIT\EXAMPLES\C++\LINEUP CPP ADVANCED\BASIC PRESSURE RAMP\DEBUG\LINEUP MIDDLEWARE.OBJ
/OUT:"D:\WORK\SDK-LINEUP GIT\EXAMPLES\C++\LINEUP CPP ADVANCED\DEBUG\BASIC PRESSURE RAMP.EXE" /INCREMENTAL /NOLOGO kernel32.lib user32.lib gdi32.lib winspool.lib comdlg32.lib advapi32.lib shell32.lib ole32.lib oleaut32.lib uuid.lib odbc32.lib odbccp32.lib /MANIFEST /MANIFESTUAC:"level='asInvoker' uiAccess='false'" /manifest:embed /DEBUG /PDB:"D:\WORK\SDK-LINEUP GIT\EXAMPLES\C++\LINEUP CPP ADVANCED\DEBUG\BASIC PRESSURE RAMP.PDB" /SUBSYSTEM:CONSOLE /TLBID:1 /DYNAMICBASE /NXCOMPAT /IMPLIB:"D:\WORK\SDK-LINEUP GIT\EXAMPLES\C++\LINEUP CPP ADVANCED\DEBUG\BASIC PRESSURE RAMP.LIB" /MACHINE:X86 "DEBUG\LINEUP LOW LEVEL.OBJ""DEBUG\LINEUP MIDDLEWARE.OBJ""DEBUG\BASIC PRESSURE RAMP.OBJ"
^D:\WORK\SDK-LINEUP GIT\EXAMPLES\C++\BASIC PRESSURE RAMP\DEBUG\BASIC PRESSURE RAMP.OBJ|D:\WORK\SDK-LINEUP GIT\EXAMPLES\C++\BASIC PRESSURE RAMP\DEBUG\LINEUP LOW LEVEL.OBJ|D:\WORK\SDK-LINEUP GIT\EXAMPLES\C++\BASIC PRESSURE RAMP\DEBUG\LINEUP MIDDLEWARE.OBJ
/OUT:"D:\WORK\SDK-LINEUP GIT\EXAMPLES\C++\DEBUG\BASIC PRESSURE RAMP.EXE" /INCREMENTAL /NOLOGO kernel32.lib user32.lib gdi32.lib winspool.lib comdlg32.lib advapi32.lib shell32.lib ole32.lib oleaut32.lib uuid.lib odbc32.lib odbccp32.lib /MANIFEST /MANIFESTUAC:"level='asInvoker' uiAccess='false'" /manifest:embed /DEBUG /PDB:"D:\WORK\SDK-LINEUP GIT\EXAMPLES\C++\DEBUG\BASIC PRESSURE RAMP.PDB" /SUBSYSTEM:CONSOLE /TLBID:1 /DYNAMICBASE /NXCOMPAT /IMPLIB:"D:\WORK\SDK-LINEUP GIT\EXAMPLES\C++\DEBUG\BASIC PRESSURE RAMP.LIB" /MACHINE:X86 "DEBUG\LINEUP LOW LEVEL.OBJ""DEBUG\LINEUP MIDDLEWARE.OBJ""DEBUG\BASIC PRESSURE RAMP.OBJ"
